\relax 
\providecommand\HyperFirstAtBeginDocument{\AtBeginDocument}
\HyperFirstAtBeginDocument{\ifx\hyper@anchor\@undefined
\global\let\oldcontentsline\contentsline
\gdef\contentsline#1#2#3#4{\oldcontentsline{#1}{#2}{#3}}
\global\let\oldnewlabel\newlabel
\gdef\newlabel#1#2{\newlabelxx{#1}#2}
\gdef\newlabelxx#1#2#3#4#5#6{\oldnewlabel{#1}{{#2}{#3}}}
\AtEndDocument{\ifx\hyper@anchor\@undefined
\let\contentsline\oldcontentsline
\let\newlabel\oldnewlabel
\fi}
\fi}
\global\let\hyper@last\relax 
\gdef\HyperFirstAtBeginDocument#1{#1}
\providecommand\HyField@AuxAddToFields[1]{}
\@writefile{toc}{\contentsline {section}{\numberline {1}Scripts}{1}{section.1}}
\@writefile{toc}{\contentsline {section}{\numberline {2}User inputs}{2}{section.2}}
\newlabel{sec:userinputs}{{2}{2}{User inputs\relax }{section.2}{}}
\@writefile{toc}{\contentsline {section}{\numberline {3}Stack Structure}{2}{section.3}}
\newlabel{sec:stack}{{3}{2}{Stack Structure\relax }{section.3}{}}
\@writefile{toc}{\contentsline {subsection}{\numberline {3.1}Stacks}{2}{subsection.3.1}}
\@writefile{toc}{\contentsline {subsection}{\numberline {3.2}Particles within stacks}{3}{subsection.3.2}}
\newlabel{sec:particles}{{3.2}{3}{Particles within stacks\relax }{subsection.3.2}{}}
\@writefile{toc}{\contentsline {subsection}{\numberline {3.3}Carbon regions within particles}{4}{subsection.3.3}}
\newlabel{sec:carbon}{{3.3}{4}{Carbon regions within particles\relax }{subsection.3.3}{}}
