\BOOKMARK [1][-]{section.1}{Scripts}{}% 1
\BOOKMARK [1][-]{section.2}{User inputs}{}% 2
\BOOKMARK [1][-]{section.3}{Stack Structure}{}% 3
\BOOKMARK [2][-]{subsection.3.1}{Stacks}{section.3}% 4
\BOOKMARK [2][-]{subsection.3.2}{Particles within stacks}{section.3}% 5
\BOOKMARK [2][-]{subsection.3.3}{Carbon regions within particles}{section.3}% 6
